…
## Installing package into '/stor/home/td23448/R/x86_64-pc-linux-gnu-library/3.4'
## (as 'lib' is unspecified)

## Warning in install.packages("dplyr"): installation of package 'dplyr' had non-
## zero exit status

library(dplyr)
#renamed "state_abbrev" in hate_crimes dataset to "state" to match up to variable in police_killings
hate_crimes<-hate_crimes%>%select(-state)
hate_crimes<-hate_crimes%>%rename("state"="state_abbrev")
merged.data2<-left_join(hate_crimes, police_killings, by="state")
project<-merged.data2%>%group_by(state)
project%>%pivot_longer(cols=c("cause","armed"), names_to="cause_of_death", values_to="values")

## # A tibble: 942 x 45
## # Groups:   state [51]
##    state median_house_inc share_unemp_seas share_pop_metro share_pop_hs
##    <chr>            <int>            <dbl>           <dbl>        <dbl>
##  1 AL               42278             0.06            0.64        0.821
##  2 AL               42278             0.06            0.64        0.821
##  3 AL               42278             0.06            0.64        0.821
##  4 AL               42278             0.06            0.64        0.821
##  5 AL               42278             0.06            0.64        0.821
##  6 AL               42278             0.06            0.64        0.821
##  7 AL               42278             0.06            0.64        0.821
##  8 AL               42278             0.06            0.64        0.821
##  9 AL               42278             0.06            0.64        0.821
## 10 AL               42278             0.06            0.64        0.821
## # … with 932 more rows, and 40 more variables: share_non_citizen <dbl>,
## #   share_white_poverty <dbl>, gini_index <dbl>, share_non_white <dbl>,
## #   share_vote_trump <dbl>, hate_crimes_per_100k_splc <dbl>,
## #   avg_hatecrimes_per_100k_fbi <dbl>, name <chr>, age <int>, gender <chr>,
## #   raceethnicity <chr>, month <chr>, day <int>, year <int>,
## #   streetaddress <chr>, city <chr>, latitude <dbl>, longitude <dbl>,
## #   state_fp <int>, county_fp <int>, tract_ce <int>, geo_id <dbl>,
## #   county_id <int>, namelsad <chr>, lawenforcementagency <chr>, pop <int>,
## #   share_white <dbl>, share_black <dbl>, share_hispanic <dbl>, p_income <int>,
## #   h_income <int>, county_income <int>, comp_income <dbl>,
## #   county_bucket <int>, nat_bucket <int>, pov <dbl>, urate <dbl>,
## #   college <dbl>, cause_of_death <chr>, values <chr>

project%>%pivot_wider(names_from="armed",values_from="cause")

## # A tibble: 471 x 51
## # Groups:   state [51]
##    state median_house_inc share_unemp_seas share_pop_metro share_pop_hs
##    <chr>            <int>            <dbl>           <dbl>        <dbl>
##  1 AL               42278            0.06             0.64        0.821
##  2 AL               42278            0.06             0.64        0.821
##  3 AL               42278            0.06             0.64        0.821
##  4 AL               42278            0.06             0.64        0.821
##  5 AL               42278            0.06             0.64        0.821
##  6 AL               42278            0.06             0.64        0.821
##  7 AL               42278            0.06             0.64        0.821
##  8 AL               42278            0.06             0.64        0.821
##  9 AK               67629            0.064            0.63        0.914
## 10 AK               67629            0.064            0.63        0.914
## # … with 461 more rows, and 46 more variables: share_non_citizen <dbl>,
## #   share_white_poverty <dbl>, gini_index <dbl>, share_non_white <dbl>,
## #   share_vote_trump <dbl>, hate_crimes_per_100k_splc <dbl>,
## #   avg_hatecrimes_per_100k_fbi <dbl>, name <chr>, age <int>, gender <chr>,
## #   raceethnicity <chr>, month <chr>, day <int>, year <int>,
## #   streetaddress <chr>, city <chr>, latitude <dbl>, longitude <dbl>,
## #   state_fp <int>, county_fp <int>, tract_ce <int>, geo_id <dbl>,
## #   county_id <int>, namelsad <chr>, lawenforcementagency <chr>, pop <int>,
## #   share_white <dbl>, share_black <dbl>, share_hispanic <dbl>, p_income <int>,
…
project<-project%>%arrange(desc(age))
project%>%filter(raceethnicity=="Black")

## # A tibble: 135 x 45
## # Groups:   state [30]
##    state median_house_inc share_unemp_seas share_pop_metro share_pop_hs
##    <chr>            <int>            <dbl>           <dbl>        <dbl>
##  1 AL               42278            0.06             0.64        0.821
##  2 NC               46784            0.058            0.76        0.843
##  3 OH               49644            0.045            0.75        0.876
##  4 LA               42406            0.06             0.81        0.822
##  5 GA               49555            0.058            0.82        0.839
##  6 CA               60487            0.059            0.97        0.806
##  7 MD               76165            0.051            0.97        0.89 
##  8 VA               66155            0.043            0.89        0.866
##  9 NY               54310            0.051            0.94        0.847
## 10 NY               54310            0.051            0.94        0.847
## # … with 125 more rows, and 40 more variables: share_non_citizen <dbl>,
## #   share_white_poverty <dbl>, gini_index <dbl>, share_non_white <dbl>,
## #   share_vote_trump <dbl>, hate_crimes_per_100k_splc <dbl>,
## #   avg_hatecrimes_per_100k_fbi <dbl>, name <chr>, age <int>, gender <chr>,
## #   raceethnicity <chr>, month <chr>, day <int>, year <int>,
## #   streetaddress <chr>, city <chr>, latitude <dbl>, longitude <dbl>,
## #   state_fp <int>, county_fp <int>, tract_ce <int>, geo_id <dbl>,
## #   county_id <int>, namelsad <chr>, lawenforcementagency <chr>, cause <chr>,
## #   armed <chr>, pop <int>, share_white <dbl>, share_black <dbl>,
## #   share_hispanic <dbl>, p_income <int>, h_income <int>, county_income <int>,
## #   comp_income <dbl>, county_bucket <int>, nat_bucket <int>, pov <dbl>,
## #   urate <dbl>, college <dbl>

project

## # A tibble: 471 x 45
## # Groups:   state [51]
##    state median_house_inc share_unemp_seas share_pop_metro share_pop_hs
##    <chr>            <int>            <dbl>           <dbl>        <dbl>
##  1 NY               54310            0.051            0.94        0.847
##  2 OK               47199            0.044            0.59        0.856
##  3 AL               42278            0.06             0.64        0.821
##  4 CA               60487            0.059            0.97        0.806
##  5 NJ               65243            0.056            1           0.874
##  6 NC               46784            0.058            0.76        0.843
##  7 CO               60940            0.04             0.8         0.893
##  8 GA               49555            0.058            0.82        0.839
##  9 AR               44922            0.052            0.69        0.824
## 10 KY               42786            0.05             0.56        0.817
## # … with 461 more rows, and 40 more variables: share_non_citizen <dbl>,
## #   share_white_poverty <dbl>, gini_index <dbl>, share_non_white <dbl>,
## #   share_vote_trump <dbl>, hate_crimes_per_100k_splc <dbl>,
## #   avg_hatecrimes_per_100k_fbi <dbl>, name <chr>, age <int>, gender <chr>,
## #   raceethnicity <chr>, month <chr>, day <int>, year <int>,
## #   streetaddress <chr>, city <chr>, latitude <dbl>, longitude <dbl>,
## #   state_fp <int>, county_fp <int>, tract_ce <int>, geo_id <dbl>,
## #   county_id <int>, namelsad <chr>, lawenforcementagency <chr>, cause <chr>,
## #   armed <chr>, pop <int>, share_white <dbl>, share_black <dbl>,
## #   share_hispanic <dbl>, p_income <int>, h_income <int>, county_income <int>,
## #   comp_income <dbl>, county_bucket <int>, nat_bucket <int>, pov <dbl>,
## #   urate <dbl>, college <dbl>

project<-project%>% mutate(non_white=share_black+share_hispanic)
project<-project%>%select(-share_black, -share_hispanic)
project<-project%>%rename("white"="share_white")
project%>%summarise(mean(age))

## # A tibble: 51 x 2
##    state `mean(age)`
##    <chr>       <dbl>
##  1 AK           33  
##  2 AL           44.9
##  3 AR           43.2
##  4 AZ           35.2
##  5 CA           35.3
##  6 CO           35.8
##  7 CT           41  
##  8 DC           35  
##  9 DE           43.5
## 10 FL           34.7
## # … with 41 more rows
…
